^C:\ПРОГЕРСКИЕ ПРОГИ\UE4_PT1_18\X64\DEBUG\UE4_PT1_18.OBJ
C:\Прогерские проги\UE4_PT1_18\X64\DEBUG\UE4_PT1_18.EXE
C:\Прогерские проги\UE4_PT1_18\X64\DEBUG\UE4_PT1_18.ILK
C:\Прогерские проги\UE4_PT1_18\X64\DEBUG\UE4_PT1_18.PDB
